Computing fixed field of  Function field in y defined by Y^2 - x^7 + x  with automorphism groupid  [24, 5]
from 12 conjugacy classes, we need to check 3

Class rep f with
f(x) =  (-1)/x
f(y) =  1/x^4*y
