Computing fixed field of  Function field in y defined by Y^4 - x^3 + 1  with automorphism groupid  [48, 33]
from 14 conjugacy classes, we need to check 2

Class rep f with
f(x) =  x
f(y) =  -y
*****************************RESULT*****************************
The fixed field of f is
Function field in z defined by z^2 + 1/8*t^3 + 1
of genus  unable to compute genus

using embedding
Morphism of function fields defined by z |--> -y^2,  t |--> -2*x
Class rep f with
f(x) =  (x + 2)/(x - 1)
f(y) =  ((-a^3 + 2*a)/(x - 1))*y
