Magma V2.17-13    Mon Dec 12 2011 03:06:07 on syd-laptop [Seed = 1640693117]
Type ? for help.  Type <Ctrl>-D to quit.

Loading file "gen3covCyt2mxt8m14xt2m1.mgm"
Current field Algebraic function field defined over Univariate rational function
field over GF(11^36) by
Y^2 + 10*x^8 + 8*x^2 + 10
