[ 12, 5 ][ 0, 2, 2, 3, 6 ][ 2, 3, 4, 12 ][ f1, f2, f3, f1*f2*f3^2 ]
[ 18, 3 ][ 0, 3, 6, 6 ][ 4, 5, 8 ][ f3, f1*f2, f1*f2^2*f3^2 ]
[ 36, 12 ][ 0, 2, 6, 6 ][ 2, 12, 18 ][ f1, f1*f2*f3*f4^2, f2*f3^2*f4 ]
[ 72, 42 ][ 0, 2, 3, 12 ][ 2, 9, 15 ][ f1, f2*f3*f4*f5, f1*f2^2*f3*f4 ]
