[ 6, 2 ][ 0, 6, 6, 6, 6 ][ 4, 4, 6, 6 ][ f1*f2, f1*f2, f1*f2^2, f1*f2^2 ]
[ 6, 2 ][ 0, 2, 3, 3, 3, 6 ][ 2, 3, 3, 5, 6 ][ f1, f2, f2, f2^2, f1*f2^2 ]
[ 12, 2 ][ 0, 6, 12, 12 ][ 8, 5, 5 ][ f2*f3, f1*f2, f1*f2 ]
[ 12, 5 ][ 0, 2, 2, 6, 6 ][ 2, 2, 7, 11 ][ f1, f1, f2*f3, f2*f3^2 ]
[ 12, 4 ][ 0, 2, 2, 2, 2, 3 ][ 2, 2, 3, 3, 4 ][ f1, f1*f3^2, f2, f2, f3 ]
[ 24, 13 ][ 0, 2, 2, 3, 3 ][ 2, 6, 3, 7 ][ f1, f1*f3, f2, f2^2*f3 ]
[ 24, 14 ][ 0, 2, 2, 2, 6 ][ 2, 3, 7, 12 ][ f1, f2, f1*f3*f4^2, f2*f3*f4 ]
[ 30, 2 ][ 0, 2, 6, 15 ][ 2, 5, 10 ][ f1, f1*f2*f3^4, f2^2*f3 ]
[ 48, 30 ][ 0, 3, 4, 4 ][ 4, 2, 10 ][ f3, f1*f4*f5, f1*f2*f3^2*f5 ]
[ 48, 14 ][ 0, 2, 4, 12 ][ 2, 7, 15 ][ f1, f1*f2*f5^2, f2*f3*f5 ]
[ 120, 35 ][ 0, 2, 3, 10 ][ 6, 3, 8 ][ (2,3)(4,5)(6,7), (1,3,5), (1,4,5,2,3)(6,7) ]
