call for x  @  (1/x,)
x  @  (1/x,) is:  1/x
call for 1/x  @  (1/x,)
1/x  @  (1/x,) is:  x
call for 1/x^4  @  (1/x,)
1/x^4  @  (1/x,) is:  x^4
call for x  @  (3*x,)
x  @  (3*x,) is:  3*x
call for 3*x  @  (3*x,)
3*x  @  (3*x,) is:  9*x
call for 9*x  @  (3*x,)
9*x  @  (3*x,) is:  x
call for x  @  (x,)
x  @  (x,) is:  x
call for x  @  (x,)
x  @  (x,) is:  x
call for x  @  (9*x,)
x  @  (9*x,) is:  9*x
call for x  @  (9*x,)
x  @  (9*x,) is:  9*x
call for x  @  (x,)
x  @  (x,) is:  x
call for x  @  (x,)
x  @  (x,) is:  x
call for 1/x^4  @  (3*x,)
1/x^4  @  (3*x,) is:  1/(3*x^4)
call for 1/x  @  (3*x,)
1/x  @  (3*x,) is:  1/(3*x)
call for 3*x  @  (1/(3*x),)
3*x  @  (1/(3*x),) is:  3/(3*x)
call for 1/x^4  @  (3/(3*x),)
1/x^4  @  (3/(3*x),) is:  x^4
call for 1/x  @  (3/(3*x),)
1/x  @  (3/(3*x),) is:  x
call for x  @  (x,)
x  @  (x,) is:  x
call for x  @  (x,)
x  @  (x,) is:  x
call for x  @  (x,)
x  @  (x,) is:  x
call for 3*x  @  (x,)
3*x  @  (x,) is:  3*x
call for x  @  (x,)
x  @  (x,) is:  x
call for x  @  (x,)
x  @  (x,) is:  x
call for 9*x  @  (x,)
9*x  @  (x,) is:  9*x
call for x  @  (x,)
x  @  (x,) is:  x
call for 9*x  @  (p,)
9*x  @  (p,) is:  9*p
call for x  @  (p,)
x  @  (p,) is:  p
call for 3*x  @  (p,)
3*x  @  (p,) is:  3*p
call for x  @  (3*p,)
x  @  (3*p,) is:  3*p
call for x  @  (x,)
x  @  (x,) is:  x
call for x  @  (p,)
x  @  (p,) is:  p
call for x  @  (x,)
x  @  (x,) is:  x
call for x  @  (x,)
x  @  (x,) is:  x
call for x  @  (x,)
x  @  (x,) is:  x
call for x  @  (x,)
x  @  (x,) is:  x
call for x  @  (y + x,)
x  @  (y + x,) is:  y + x
call for x  @  (y + x,)
x  @  (y + x,) is:  y + x
call for 9*x  @  (9*x,)
9*x  @  (9*x,) is:  3*x
call for x  @  (9*x,)
x  @  (9*x,) is:  9*x
call for x  @  (9*x,)
x  @  (9*x,) is:  9*x
call for 3*x  @  (9*x,)
3*x  @  (9*x,) is:  x
call for x  @  (x,)
x  @  (x,) is:  x
call for x  @  (9*x,)
x  @  (9*x,) is:  9*x
call for x  @  (x,)
x  @  (x,) is:  x
call for 9*x  @  (9*x,)
9*x  @  (9*x,) is:  3*x
call for x  @  (3*x,)
x  @  (3*x,) is:  3*x
call for 3*x  @  (3*x,)
3*x  @  (3*x,) is:  9*x
call for x  @  (9*x,)
x  @  (9*x,) is:  9*x
call for 9*x  @  (3*x,)
9*x  @  (3*x,) is:  x
call for x  @  (x,)
x  @  (x,) is:  x
call for x  @  (x,)
x  @  (x,) is:  x
from 6 conjugacy classes, we need to check 3

Class rep f with
f(x) =  call for x  @  (1/x,)
x  @  (1/x,) is:  1/x
call for x  @  (x,)
x  @  (x,) is:  x
call for x  @  (x,)
x  @  (x,) is:  x
call for 1/x  @  (x,)
1/x  @  (x,) is:  1/x
call for 1/x^4  @  (x,)
1/x^4  @  (x,) is:  1/x^4
call for x  @  (x,)
x  @  (x,) is:  x
call for x  @  (x,)
x  @  (x,) is:  x
call for 12*x^3  @  (x,)
12*x^3  @  (x,) is:  12*x^3
call for x^4  @  (x,)
x^4  @  (x,) is:  x^4
call for x  @  (x,)
x  @  (x,) is:  x
call for 12*x^3  @  (p,)
12*x^3  @  (p,) is:  12*p^3
call for x^4  @  (p,)
x^4  @  (p,) is:  p^4
call for x  @  (p,)
x  @  (p,) is:  p
call for 1/x^4  @  (p,)
1/x^4  @  (p,) is:  12*a*x^2*p^6 + (2*a*x + a)*p^5 + 12*a*p^4 + x^2*p^3 + (11*x + a^2 + 12)*p^2 + p
call for 1/x  @  (p,)
1/x  @  (p,) is:  x^2*p^6 + (11*x + 12)*p^5 + p^4 + 12*a*p^2
call for x  @  (x^2*p^6 + (11*x + 12)*p^5 + p^4 + 12*a*p^2,)
x  @  (x^2*p^6 + (11*x + 12)*p^5 + p^4 + 12*a*p^2,) is:  x^2*p^6 + (11*x + 12)*p^5 + p^4 + 12*a*p^2
call for x  @  (x,)
x  @  (x,) is:  x
call for x  @  (p,)
x  @  (p,) is:  p
call for x  @  (x,)
x  @  (x,) is:  x
call for 11*x + 12  @  (x,)
11*x + 12  @  (x,) is:  11*x + 12
call for x^2  @  (x,)
x^2  @  (x,) is:  x^2
call for x  @  (x,)
x  @  (x,) is:  x
call for x  @  (x,)
x  @  (x,) is:  x
call for (8/a^5*x + 4/a^5)/(4/a^5*x^2)  @  (x,)
(8/a^5*x + 4/a^5)/(4/a^5*x^2)  @  (x,) is:  (8/a^5*x + 4/a^5)/(4/a^5*x^2)
call for 9/a^5/(4/a^5*x^2)  @  (x,)
9/a^5/(4/a^5*x^2)  @  (x,) is:  9/a^5/(4/a^5*x^2)
call for 4/a^4/(4/a^5*x^2)  @  (x,)
4/a^4/(4/a^5*x^2)  @  (x,) is:  4/a^4/(4/a^5*x^2)
call for 1/a^3/(1/a^3*x^2)  @  (x,)
1/a^3/(1/a^3*x^2)  @  (x,) is:  1/a^3/(1/a^3*x^2)
call for x  @  (x,)
x  @  (x,) is:  x
call for (8/a^5*x + 4/a^5)/(4/a^5*x^2)  @  (y + x,)
(8/a^5*x + 4/a^5)/(4/a^5*x^2)  @  (y + x,) is:  ((6/a^20*x^5 + 6/a^19*x^2 + 7/a^20)/(3/a^20*x^12 + 6/a^19*x^9 + 7/a^20*x^7 + ((3*a^2 + 6)/a^20)*x^6 + 7/a^19*x^4 + 6/a^19*x^3 + 3/a^20*x^2 + 7/a^20*x + 3/a^20))*y + (5/a^10*x^7 + 4/a^10*x^6 + 5/a^9*x^4 + 4/a^9*x^3 + 8/a^10*x^2 + 9/a^10*x + 4/a^10)/(4/a^10*x^13 + 8/a^9*x^10 + 5/a^10*x^8 + ((4*a^2 + 8)/a^10)*x^7 + 5/a^9*x^5 + 8/a^9*x^4 + 4/a^10*x^3 + 5/a^10*x^2 + 4/a^10*x)
call for 9/a^5/(4/a^5*x^2)  @  (y + x,)
9/a^5/(4/a^5*x^2)  @  (y + x,) is:  (4/a^5/(2/a^5*x^13 + 4/a^4*x^10 + 9/a^5*x^8 + ((2*a^2 + 4)/a^5)*x^7 + 9/a^4*x^5 + 4/a^4*x^4 + 2/a^5*x^3 + 9/a^5*x^2 + 2/a^5*x))*y + (11/a^5*x^6 + 11/a^4*x^3 + 11/a^5*x + 11/a^5)/(2/a^5*x^13 + 4/a^4*x^10 + 9/a^5*x^8 + ((2*a^2 + 4)/a^5)*x^7 + 9/a^4*x^5 + 4/a^4*x^4 + 2/a^5*x^3 + 9/a^5*x^2 + 2/a^5*x)
call for 4/a^4/(4/a^5*x^2)  @  (y + x,)
4/a^4/(4/a^5*x^2)  @  (y + x,) is:  (9/a^4/(2/a^5*x^13 + 4/a^4*x^10 + 9/a^5*x^8 + ((2*a^2 + 4)/a^5)*x^7 + 9/a^4*x^5 + 4/a^4*x^4 + 2/a^5*x^3 + 9/a^5*x^2 + 2/a^5*x))*y + (2/a^4*x^6 + 2/a^3*x^3 + 2/a^4*x + 2/a^4)/(2/a^5*x^13 + 4/a^4*x^10 + 9/a^5*x^8 + ((2*a^2 + 4)/a^5)*x^7 + 9/a^4*x^5 + 4/a^4*x^4 + 2/a^5*x^3 + 9/a^5*x^2 + 2/a^5*x)
call for 1/a^3/(1/a^3*x^2)  @  (y + x,)
1/a^3/(1/a^3*x^2)  @  (y + x,) is:  (12/a^3/(7/a^3*x^13 + 1/a^2*x^10 + 12/a^3*x^8 + ((7*a^2 + 1)/a^3)*x^7 + 12/a^2*x^5 + 1/a^2*x^4 + 7/a^3*x^3 + 12/a^3*x^2 + 7/a^3*x))*y + (7/a^3*x^6 + 7/a^2*x^3 + 7/a^3*x + 7/a^3)/(7/a^3*x^13 + 1/a^2*x^10 + 12/a^3*x^8 + ((7*a^2 + 1)/a^3)*x^7 + 12/a^2*x^5 + 1/a^2*x^4 + 7/a^3*x^3 + 12/a^3*x^2 + 7/a^3*x)
call for x  @  (y + x,)
x  @  (y + x,) is:  y + x
call for x  @  (y + x,)
x  @  (y + x,) is:  y + x
call for 12*x^3  @  (8/a^23/(8/a^23*x),)
12*x^3  @  (8/a^23/(8/a^23*x),) is:  8/a^69/(5/a^69*x^3)
call for x^4  @  (8/a^23/(8/a^23*x),)
x^4  @  (8/a^23/(8/a^23*x),) is:  1/a^92/(1/a^92*x^4)
call for x  @  (8/a^23/(8/a^23*x),)
x  @  (8/a^23/(8/a^23*x),) is:  8/a^23/(8/a^23*x)
call for x  @  (8/a^23/(8/a^23*x),)
x  @  (8/a^23/(8/a^23*x),) is:  8/a^23/(8/a^23*x)
call for 1/x^4  @  (8/a^23/(8/a^23*x),)
1/x^4  @  (8/a^23/(8/a^23*x),) is:  x^4
call for 1/x  @  (8/a^23/(8/a^23*x),)
1/x  @  (8/a^23/(8/a^23*x),) is:  x
call for x  @  (x,)
x  @  (x,) is:  x
call for 1/a^92/(1/a^92*x^4)  @  (1/x,)
1/a^92/(1/a^92*x^4)  @  (1/x,) is:  x^4
call for x  @  (8/a^23/(8/a^23*x),)
x  @  (8/a^23/(8/a^23*x),) is:  8/a^23/(8/a^23*x)
call for 8/a^23/(8/a^23*x)  @  (1/x,)
8/a^23/(8/a^23*x)  @  (1/x,) is:  x
call for x  @  (x,)
x  @  (x,) is:  x
call for x  @  (8/a^23/(8/a^23*x),)
x  @  (8/a^23/(8/a^23*x),) is:  8/a^23/(8/a^23*x)
8/a^23/(8/a^23*x)
f(y) =  1/a^92/(1/a^92*x^4)*y
Changing to invariant rational function field...
call for t  @  ((5/a^23*x^2 + 5/a^23)/(8/a^23*x),)
t  @  ((5/a^23*x^2 + 5/a^23)/(8/a^23*x),) is:  (5/a^23*x^2 + 5/a^23)/(8/a^23*x)
call for x  @  (x,)
x  @  (x,) is:  x
call for x  @  (x,)
x  @  (x,) is:  x
call for (5/a^23*x^2 + 5/a^23)/(8/a^23*x)  @  (x,)
(5/a^23*x^2 + 5/a^23)/(8/a^23*x)  @  (x,) is:  (5/a^23*x^2 + 5/a^23)/(8/a^23*x)
call for x  @  (x,)
x  @  (x,) is:  x
call for x  @  (x,)
x  @  (x,) is:  x
call for (8/a^23*x^2 + 8/a^23)/(8/a^23*x)  @  (x,)
(8/a^23*x^2 + 8/a^23)/(8/a^23*x)  @  (x,) is:  (8/a^23*x^2 + 8/a^23)/(8/a^23*x)
call for x  @  (x,)
x  @  (x,) is:  x
call for (8/a^23*x^2 + 8/a^23)/(8/a^23*x)  @  (p,)
(8/a^23*x^2 + 8/a^23)/(8/a^23*x)  @  (p,) is:  p^8 + a*p^5 + 12*p^3 + (11*x + 1)*p^2 + (12*x^2 + 12)*p + 11*x
call for x  @  (p,)
x  @  (p,) is:  p
call for (5/a^23*x^2 + 5/a^23)/(8/a^23*x)  @  (p,)
(5/a^23*x^2 + 5/a^23)/(8/a^23*x)  @  (p,) is:  12*p^8 + 12*a*p^5 + p^3 + (2*x + 12)*p^2 + (x^2 + 1)*p + 2*x
call for t  @  (12*p^8 + 12*a*p^5 + p^3 + (2*x + 12)*p^2 + (x^2 + 1)*p + 2*x,)
t  @  (12*p^8 + 12*a*p^5 + p^3 + (2*x + 12)*p^2 + (x^2 + 1)*p + 2*x,) is:  12*p^8 + 12*a*p^5 + p^3 + (2*x + 12)*p^2 + (x^2 + 1)*p + 2*x
call for t  @  (t,)
t  @  (t,) is:  t
call for t  @  (p,)
t  @  (p,) is:  p
call for t  @  (x,)
t  @  (x,) is:  x
call for 2*x  @  (t,)
2*x  @  (t,) is:  2*t
call for x^2 + 1  @  (t,)
x^2 + 1  @  (t,) is:  t^2 + 1
call for 2*x + 12  @  (t,)
2*x + 12  @  (t,) is:  2*t + 12
call for x  @  (t,)
x  @  (t,) is:  t
call for t  @  (t,)
t  @  (t,) is:  t
call for (3*t^9 + 4*t^8 + 11*t^7 + (10*a + 6)*t^6 + (12*a + 12)*t^5 + (4*a^2 + 10*a)*t^4 + (10*a^2 + 7*a + 5)*t^3 + (2*a^2 + 8*a + 12)*t^2 + (8*a^3 + a^2 + 4)*t + 3*a^3 + 6*a + 4)/(4*t^10 + (8*a + 12)*t^8 + (5*a + 6)*t^7 + (4*a^2 + 7*a + 10)*t^6 + (10*a^2 + 4*a + 3)*t^5 + (6*a^2 + 3*a + 3)*t^4 + (5*a^3 + 3*a^2 + 5*a + 2)*t^3 + (8*a^3 + 7*a^2 + 11*a + 7)*t^2 + (11*a^3 + 11*a^2 + 9*a)*t + 4*a^4 + 3*a^3 + 8*a^2)  @  (x,)
(3*t^9 + 4*t^8 + 11*t^7 + (10*a + 6)*t^6 + (12*a + 12)*t^5 + (4*a^2 + 10*a)*t^4 + (10*a^2 + 7*a + 5)*t^3 + (2*a^2 + 8*a + 12)*t^2 + (8*a^3 + a^2 + 4)*t + 3*a^3 + 6*a + 4)/(4*t^10 + (8*a + 12)*t^8 + (5*a + 6)*t^7 + (4*a^2 + 7*a + 10)*t^6 + (10*a^2 + 4*a + 3)*t^5 + (6*a^2 + 3*a + 3)*t^4 + (5*a^3 + 3*a^2 + 5*a + 2)*t^3 + (8*a^3 + 7*a^2 + 11*a + 7)*t^2 + (11*a^3 + 11*a^2 + 9*a)*t + 4*a^4 + 3*a^3 + 8*a^2)  @  (x,) is:  (3*x^9 + 4*x^8 + 11*x^7 + (10*a + 6)*x^6 + (12*a + 12)*x^5 + (4*a^2 + 10*a)*x^4 + (10*a^2 + 7*a + 5)*x^3 + (2*a^2 + 8*a + 12)*x^2 + (8*a^3 + a^2 + 4)*x + 3*a^3 + 6*a + 4)/(4*x^10 + (8*a + 12)*x^8 + (5*a + 6)*x^7 + (4*a^2 + 7*a + 10)*x^6 + (10*a^2 + 4*a + 3)*x^5 + (6*a^2 + 3*a + 3)*x^4 + (5*a^3 + 3*a^2 + 5*a + 2)*x^3 + (8*a^3 + 7*a^2 + 11*a + 7)*x^2 + (11*a^3 + 11*a^2 + 9*a)*x + 4*a^4 + 3*a^3 + 8*a^2)
call for (9*t^12 + (10*a + 3)*t^10 + (8*a + 10)*t^9 + (a^2 + 7*a + 7)*t^8 + (6*a^2 + 7*a + 3)*t^7 + (3*a^2 + 7*a + 6)*t^6 + (11*a^3 + 9*a^2 + 12*a + 8)*t^5 + (10*a^3 + 3*a^2 + a)*t^4 + (11*a^3 + 7*a^2 + a + 1)*t^3 + (a^4 + 11*a^2 + 5*a + 11)*t^2 + (9*a^3 + 10*a^2 + 6)*t + 9*a^4 + 4*a^3 + 12*a^2 + 5*a + 1)/(4*t^12 + (4*a + 12)*t^10 + (5*a + 6)*t^9 + (9*a^2 + 8*a + 10)*t^8 + (5*a^2 + 11*a + 3)*t^7 + (9*a^3 + 12*a^2 + 6*a + 3)*t^6 + (8*a^3 + 12*a^2 + 2*a + 2)*t^5 + (2*a^3 + 4*a^2 + 8*a + 7)*t^4 + (8*a^4 + 8*a^3 + 6*a^2 + 7*a)*t^3 + (9*a^4 + 9*a^3 + 10*a^2 + 6*a)*t^2 + (2*a^4 + 2*a^3 + 4*a^2)*t + 9*a^5 + 10*a^4 + 5*a^3)  @  (x,)
(9*t^12 + (10*a + 3)*t^10 + (8*a + 10)*t^9 + (a^2 + 7*a + 7)*t^8 + (6*a^2 + 7*a + 3)*t^7 + (3*a^2 + 7*a + 6)*t^6 + (11*a^3 + 9*a^2 + 12*a + 8)*t^5 + (10*a^3 + 3*a^2 + a)*t^4 + (11*a^3 + 7*a^2 + a + 1)*t^3 + (a^4 + 11*a^2 + 5*a + 11)*t^2 + (9*a^3 + 10*a^2 + 6)*t + 9*a^4 + 4*a^3 + 12*a^2 + 5*a + 1)/(4*t^12 + (4*a + 12)*t^10 + (5*a + 6)*t^9 + (9*a^2 + 8*a + 10)*t^8 + (5*a^2 + 11*a + 3)*t^7 + (9*a^3 + 12*a^2 + 6*a + 3)*t^6 + (8*a^3 + 12*a^2 + 2*a + 2)*t^5 + (2*a^3 + 4*a^2 + 8*a + 7)*t^4 + (8*a^4 + 8*a^3 + 6*a^2 + 7*a)*t^3 + (9*a^4 + 9*a^3 + 10*a^2 + 6*a)*t^2 + (2*a^4 + 2*a^3 + 4*a^2)*t + 9*a^5 + 10*a^4 + 5*a^3)  @  (x,) is:  (9*x^12 + (10*a + 3)*x^10 + (8*a + 10)*x^9 + (a^2 + 7*a + 7)*x^8 + (6*a^2 + 7*a + 3)*x^7 + (3*a^2 + 7*a + 6)*x^6 + (11*a^3 + 9*a^2 + 12*a + 8)*x^5 + (10*a^3 + 3*a^2 + a)*x^4 + (11*a^3 + 7*a^2 + a + 1)*x^3 + (a^4 + 11*a^2 + 5*a + 11)*x^2 + (9*a^3 + 10*a^2 + 6)*x + 9*a^4 + 4*a^3 + 12*a^2 + 5*a + 1)/(4*x^12 + (4*a + 12)*x^10 + (5*a + 6)*x^9 + (9*a^2 + 8*a + 10)*x^8 + (5*a^2 + 11*a + 3)*x^7 + (9*a^3 + 12*a^2 + 6*a + 3)*x^6 + (8*a^3 + 12*a^2 + 2*a + 2)*x^5 + (2*a^3 + 4*a^2 + 8*a + 7)*x^4 + (8*a^4 + 8*a^3 + 6*a^2 + 7*a)*x^3 + (9*a^4 + 9*a^3 + 10*a^2 + 6*a)*x^2 + (2*a^4 + 2*a^3 + 4*a^2)*x + 9*a^5 + 10*a^4 + 5*a^3)
call for (3*t^10 + (a + 3)*t^9 + 12*t^8 + (11*a^2 + 2*a + 6)*t^7 + (3*a^2 + 7*a + 8)*t^6 + (3*a + 2)*t^5 + (4*a^3 + 8*a^2 + 6*a + 10)*t^4 + (5*a^3 + 10*a^2 + 6*a + 7)*t^3 + (5*a^3 + a^2 + 12*a + 7)*t^2 + (11*a^4 + 11*a^3 + 6*a^2 + 4*a + 8)*t + 8*a^4 + 4*a^3 + 10*a^2 + 8)/(4*t^12 + (4*a + 12)*t^10 + (5*a + 6)*t^9 + (9*a^2 + 8*a + 10)*t^8 + (5*a^2 + 11*a + 3)*t^7 + (9*a^3 + 12*a^2 + 6*a + 3)*t^6 + (8*a^3 + 12*a^2 + 2*a + 2)*t^5 + (2*a^3 + 4*a^2 + 8*a + 7)*t^4 + (8*a^4 + 8*a^3 + 6*a^2 + 7*a)*t^3 + (9*a^4 + 9*a^3 + 10*a^2 + 6*a)*t^2 + (2*a^4 + 2*a^3 + 4*a^2)*t + 9*a^5 + 10*a^4 + 5*a^3)  @  (x,)
(3*t^10 + (a + 3)*t^9 + 12*t^8 + (11*a^2 + 2*a + 6)*t^7 + (3*a^2 + 7*a + 8)*t^6 + (3*a + 2)*t^5 + (4*a^3 + 8*a^2 + 6*a + 10)*t^4 + (5*a^3 + 10*a^2 + 6*a + 7)*t^3 + (5*a^3 + a^2 + 12*a + 7)*t^2 + (11*a^4 + 11*a^3 + 6*a^2 + 4*a + 8)*t + 8*a^4 + 4*a^3 + 10*a^2 + 8)/(4*t^12 + (4*a + 12)*t^10 + (5*a + 6)*t^9 + (9*a^2 + 8*a + 10)*t^8 + (5*a^2 + 11*a + 3)*t^7 + (9*a^3 + 12*a^2 + 6*a + 3)*t^6 + (8*a^3 + 12*a^2 + 2*a + 2)*t^5 + (2*a^3 + 4*a^2 + 8*a + 7)*t^4 + (8*a^4 + 8*a^3 + 6*a^2 + 7*a)*t^3 + (9*a^4 + 9*a^3 + 10*a^2 + 6*a)*t^2 + (2*a^4 + 2*a^3 + 4*a^2)*t + 9*a^5 + 10*a^4 + 5*a^3)  @  (x,) is:  (3*x^10 + (a + 3)*x^9 + 12*x^8 + (11*a^2 + 2*a + 6)*x^7 + (3*a^2 + 7*a + 8)*x^6 + (3*a + 2)*x^5 + (4*a^3 + 8*a^2 + 6*a + 10)*x^4 + (5*a^3 + 10*a^2 + 6*a + 7)*x^3 + (5*a^3 + a^2 + 12*a + 7)*x^2 + (11*a^4 + 11*a^3 + 6*a^2 + 4*a + 8)*x + 8*a^4 + 4*a^3 + 10*a^2 + 8)/(4*x^12 + (4*a + 12)*x^10 + (5*a + 6)*x^9 + (9*a^2 + 8*a + 10)*x^8 + (5*a^2 + 11*a + 3)*x^7 + (9*a^3 + 12*a^2 + 6*a + 3)*x^6 + (8*a^3 + 12*a^2 + 2*a + 2)*x^5 + (2*a^3 + 4*a^2 + 8*a + 7)*x^4 + (8*a^4 + 8*a^3 + 6*a^2 + 7*a)*x^3 + (9*a^4 + 9*a^3 + 10*a^2 + 6*a)*x^2 + (2*a^4 + 2*a^3 + 4*a^2)*x + 9*a^5 + 10*a^4 + 5*a^3)
call for (a*t^10 + 12*t^9 + (a^2 + 2*a + 12)*t^8 + (11*a^2 + 9*a + 10)*t^7 + (4*a^2 + 2*a + 6)*t^6 + (11*a^3 + 3*a^2 + 12*a)*t^5 + (a^3 + 9*a^2 + 2*a + 2)*t^4 + (12*a^3 + 2*a^2 + 5*a + 9)*t^3 + (a^4 + 7*a^3 + 5*a^2 + 4*a + 3)*t^2 + (6*a^3 + 6*a^2 + 11*a + 7)*t + 10*a^4 + 9*a^3 + 3*a^2 + 10*a + 6)/(t^12 + (a + 3)*t^10 + (11*a + 8)*t^9 + (12*a^2 + 2*a + 9)*t^8 + (11*a^2 + 6*a + 4)*t^7 + (12*a^3 + 3*a^2 + 8*a + 4)*t^6 + (2*a^3 + 3*a^2 + 7*a + 7)*t^5 + (7*a^3 + a^2 + 2*a + 5)*t^4 + (2*a^4 + 2*a^3 + 8*a^2 + 5*a)*t^3 + (12*a^4 + 12*a^3 + 9*a^2 + 8*a)*t^2 + (7*a^4 + 7*a^3 + a^2)*t + 12*a^5 + 9*a^4 + 11*a^3)  @  (x,)
(a*t^10 + 12*t^9 + (a^2 + 2*a + 12)*t^8 + (11*a^2 + 9*a + 10)*t^7 + (4*a^2 + 2*a + 6)*t^6 + (11*a^3 + 3*a^2 + 12*a)*t^5 + (a^3 + 9*a^2 + 2*a + 2)*t^4 + (12*a^3 + 2*a^2 + 5*a + 9)*t^3 + (a^4 + 7*a^3 + 5*a^2 + 4*a + 3)*t^2 + (6*a^3 + 6*a^2 + 11*a + 7)*t + 10*a^4 + 9*a^3 + 3*a^2 + 10*a + 6)/(t^12 + (a + 3)*t^10 + (11*a + 8)*t^9 + (12*a^2 + 2*a + 9)*t^8 + (11*a^2 + 6*a + 4)*t^7 + (12*a^3 + 3*a^2 + 8*a + 4)*t^6 + (2*a^3 + 3*a^2 + 7*a + 7)*t^5 + (7*a^3 + a^2 + 2*a + 5)*t^4 + (2*a^4 + 2*a^3 + 8*a^2 + 5*a)*t^3 + (12*a^4 + 12*a^3 + 9*a^2 + 8*a)*t^2 + (7*a^4 + 7*a^3 + a^2)*t + 12*a^5 + 9*a^4 + 11*a^3)  @  (x,) is:  (a*x^10 + 12*x^9 + (a^2 + 2*a + 12)*x^8 + (11*a^2 + 9*a + 10)*x^7 + (4*a^2 + 2*a + 6)*x^6 + (11*a^3 + 3*a^2 + 12*a)*x^5 + (a^3 + 9*a^2 + 2*a + 2)*x^4 + (12*a^3 + 2*a^2 + 5*a + 9)*x^3 + (a^4 + 7*a^3 + 5*a^2 + 4*a + 3)*x^2 + (6*a^3 + 6*a^2 + 11*a + 7)*x + 10*a^4 + 9*a^3 + 3*a^2 + 10*a + 6)/(x^12 + (a + 3)*x^10 + (11*a + 8)*x^9 + (12*a^2 + 2*a + 9)*x^8 + (11*a^2 + 6*a + 4)*x^7 + (12*a^3 + 3*a^2 + 8*a + 4)*x^6 + (2*a^3 + 3*a^2 + 7*a + 7)*x^5 + (7*a^3 + a^2 + 2*a + 5)*x^4 + (2*a^4 + 2*a^3 + 8*a^2 + 5*a)*x^3 + (12*a^4 + 12*a^3 + 9*a^2 + 8*a)*x^2 + (7*a^4 + 7*a^3 + a^2)*x + 12*a^5 + 9*a^4 + 11*a^3)
call for (5*t^10 + 7*a*t^9 + (8*a + 5)*t^8 + (7*a^2 + 2*a + 7)*t^7 + (2*a^2 + 5*a + 8)*t^6 + (6*a^2 + 8*a + 5)*t^5 + (12*a^3 + 8*a^2 + 9*a + 9)*t^4 + (6*a^2 + 7*a + 8)*t^3 + (8*a^3 + 3*a^2 + 5*a + 11)*t^2 + (7*a^4 + a^3 + a^2 + 2*a + 4)*t + 9*a^3 + 9*a^2 + 4*a + 12)/(3*t^12 + (3*a + 9)*t^10 + (7*a + 11)*t^9 + (10*a^2 + 6*a + 1)*t^8 + (7*a^2 + 5*a + 12)*t^7 + (10*a^3 + 9*a^2 + 11*a + 12)*t^6 + (6*a^3 + 9*a^2 + 8*a + 8)*t^5 + (8*a^3 + 3*a^2 + 6*a + 2)*t^4 + (6*a^4 + 6*a^3 + 11*a^2 + 2*a)*t^3 + (10*a^4 + 10*a^3 + a^2 + 11*a)*t^2 + (8*a^4 + 8*a^3 + 3*a^2)*t + 10*a^5 + a^4 + 7*a^3)  @  (x,)
(5*t^10 + 7*a*t^9 + (8*a + 5)*t^8 + (7*a^2 + 2*a + 7)*t^7 + (2*a^2 + 5*a + 8)*t^6 + (6*a^2 + 8*a + 5)*t^5 + (12*a^3 + 8*a^2 + 9*a + 9)*t^4 + (6*a^2 + 7*a + 8)*t^3 + (8*a^3 + 3*a^2 + 5*a + 11)*t^2 + (7*a^4 + a^3 + a^2 + 2*a + 4)*t + 9*a^3 + 9*a^2 + 4*a + 12)/(3*t^12 + (3*a + 9)*t^10 + (7*a + 11)*t^9 + (10*a^2 + 6*a + 1)*t^8 + (7*a^2 + 5*a + 12)*t^7 + (10*a^3 + 9*a^2 + 11*a + 12)*t^6 + (6*a^3 + 9*a^2 + 8*a + 8)*t^5 + (8*a^3 + 3*a^2 + 6*a + 2)*t^4 + (6*a^4 + 6*a^3 + 11*a^2 + 2*a)*t^3 + (10*a^4 + 10*a^3 + a^2 + 11*a)*t^2 + (8*a^4 + 8*a^3 + 3*a^2)*t + 10*a^5 + a^4 + 7*a^3)  @  (x,) is:  (5*x^10 + 7*a*x^9 + (8*a + 5)*x^8 + (7*a^2 + 2*a + 7)*x^7 + (2*a^2 + 5*a + 8)*x^6 + (6*a^2 + 8*a + 5)*x^5 + (12*a^3 + 8*a^2 + 9*a + 9)*x^4 + (6*a^2 + 7*a + 8)*x^3 + (8*a^3 + 3*a^2 + 5*a + 11)*x^2 + (7*a^4 + a^3 + a^2 + 2*a + 4)*x + 9*a^3 + 9*a^2 + 4*a + 12)/(3*x^12 + (3*a + 9)*x^10 + (7*a + 11)*x^9 + (10*a^2 + 6*a + 1)*x^8 + (7*a^2 + 5*a + 12)*x^7 + (10*a^3 + 9*a^2 + 11*a + 12)*x^6 + (6*a^3 + 9*a^2 + 8*a + 8)*x^5 + (8*a^3 + 3*a^2 + 6*a + 2)*x^4 + (6*a^4 + 6*a^3 + 11*a^2 + 2*a)*x^3 + (10*a^4 + 10*a^3 + a^2 + 11*a)*x^2 + (8*a^4 + 8*a^3 + 3*a^2)*x + 10*a^5 + a^4 + 7*a^3)
call for (9*t^9 + 10*a*t^8 + (10*a + 10)*t^7 + (10*a^2 + a + 10)*t^6 + (6*a^2 + a + 5)*t^5 + (7*a^2 + 8*a + 4)*t^4 + (6*a^3 + 11*a^2 + 2*a + 5)*t^3 + (6*a^3 + 11*a + 11)*t^2 + (5*a^3 + 10*a^2 + 3*a + 10)*t + 10*a^4 + 6*a^3 + 12*a^2 + 2*a + 1)/(10*t^12 + (10*a + 4)*t^10 + (6*a + 2)*t^9 + (3*a^2 + 7*a + 12)*t^8 + (6*a^2 + 8*a + 1)*t^7 + (3*a^3 + 4*a^2 + 2*a + 1)*t^6 + (7*a^3 + 4*a^2 + 5*a + 5)*t^5 + (5*a^3 + 10*a^2 + 7*a + 11)*t^4 + (7*a^4 + 7*a^3 + 2*a^2 + 11*a)*t^3 + (3*a^4 + 3*a^3 + 12*a^2 + 2*a)*t^2 + (5*a^4 + 5*a^3 + 10*a^2)*t + 3*a^5 + 12*a^4 + 6*a^3)  @  (x,)
(9*t^9 + 10*a*t^8 + (10*a + 10)*t^7 + (10*a^2 + a + 10)*t^6 + (6*a^2 + a + 5)*t^5 + (7*a^2 + 8*a + 4)*t^4 + (6*a^3 + 11*a^2 + 2*a + 5)*t^3 + (6*a^3 + 11*a + 11)*t^2 + (5*a^3 + 10*a^2 + 3*a + 10)*t + 10*a^4 + 6*a^3 + 12*a^2 + 2*a + 1)/(10*t^12 + (10*a + 4)*t^10 + (6*a + 2)*t^9 + (3*a^2 + 7*a + 12)*t^8 + (6*a^2 + 8*a + 1)*t^7 + (3*a^3 + 4*a^2 + 2*a + 1)*t^6 + (7*a^3 + 4*a^2 + 5*a + 5)*t^5 + (5*a^3 + 10*a^2 + 7*a + 11)*t^4 + (7*a^4 + 7*a^3 + 2*a^2 + 11*a)*t^3 + (3*a^4 + 3*a^3 + 12*a^2 + 2*a)*t^2 + (5*a^4 + 5*a^3 + 10*a^2)*t + 3*a^5 + 12*a^4 + 6*a^3)  @  (x,) is:  (9*x^9 + 10*a*x^8 + (10*a + 10)*x^7 + (10*a^2 + a + 10)*x^6 + (6*a^2 + a + 5)*x^5 + (7*a^2 + 8*a + 4)*x^4 + (6*a^3 + 11*a^2 + 2*a + 5)*x^3 + (6*a^3 + 11*a + 11)*x^2 + (5*a^3 + 10*a^2 + 3*a + 10)*x + 10*a^4 + 6*a^3 + 12*a^2 + 2*a + 1)/(10*x^12 + (10*a + 4)*x^10 + (6*a + 2)*x^9 + (3*a^2 + 7*a + 12)*x^8 + (6*a^2 + 8*a + 1)*x^7 + (3*a^3 + 4*a^2 + 2*a + 1)*x^6 + (7*a^3 + 4*a^2 + 5*a + 5)*x^5 + (5*a^3 + 10*a^2 + 7*a + 11)*x^4 + (7*a^4 + 7*a^3 + 2*a^2 + 11*a)*x^3 + (3*a^4 + 3*a^3 + 12*a^2 + 2*a)*x^2 + (5*a^4 + 5*a^3 + 10*a^2)*x + 3*a^5 + 12*a^4 + 6*a^3)
call for (t^10 + (a + 12)*t^8 + (11*a + 4)*t^7 + (a + 3)*t^6 + (11*a^2 + 9*a + 11)*t^5 + (a^2 + 6*a + 8)*t^4 + (5*a^2 + 4*a + 4)*t^3 + (a^3 + 8*a + 9)*t^2 + (7*a^2 + 10*a + 5)*t + 7*a^3 + 4*a^2 + 10*a + 2)/(12*t^12 + (12*a + 10)*t^10 + (2*a + 5)*t^9 + (a^2 + 11*a + 4)*t^8 + (2*a^2 + 7*a + 9)*t^7 + (a^3 + 10*a^2 + 5*a + 9)*t^6 + (11*a^3 + 10*a^2 + 6*a + 6)*t^5 + (6*a^3 + 12*a^2 + 11*a + 8)*t^4 + (11*a^4 + 11*a^3 + 5*a^2 + 8*a)*t^3 + (a^4 + a^3 + 4*a^2 + 5*a)*t^2 + (6*a^4 + 6*a^3 + 12*a^2)*t + a^5 + 4*a^4 + 2*a^3)  @  (x,)
(t^10 + (a + 12)*t^8 + (11*a + 4)*t^7 + (a + 3)*t^6 + (11*a^2 + 9*a + 11)*t^5 + (a^2 + 6*a + 8)*t^4 + (5*a^2 + 4*a + 4)*t^3 + (a^3 + 8*a + 9)*t^2 + (7*a^2 + 10*a + 5)*t + 7*a^3 + 4*a^2 + 10*a + 2)/(12*t^12 + (12*a + 10)*t^10 + (2*a + 5)*t^9 + (a^2 + 11*a + 4)*t^8 + (2*a^2 + 7*a + 9)*t^7 + (a^3 + 10*a^2 + 5*a + 9)*t^6 + (11*a^3 + 10*a^2 + 6*a + 6)*t^5 + (6*a^3 + 12*a^2 + 11*a + 8)*t^4 + (11*a^4 + 11*a^3 + 5*a^2 + 8*a)*t^3 + (a^4 + a^3 + 4*a^2 + 5*a)*t^2 + (6*a^4 + 6*a^3 + 12*a^2)*t + a^5 + 4*a^4 + 2*a^3)  @  (x,) is:  (x^10 + (a + 12)*x^8 + (11*a + 4)*x^7 + (a + 3)*x^6 + (11*a^2 + 9*a + 11)*x^5 + (a^2 + 6*a + 8)*x^4 + (5*a^2 + 4*a + 4)*x^3 + (a^3 + 8*a + 9)*x^2 + (7*a^2 + 10*a + 5)*x + 7*a^3 + 4*a^2 + 10*a + 2)/(12*x^12 + (12*a + 10)*x^10 + (2*a + 5)*x^9 + (a^2 + 11*a + 4)*x^8 + (2*a^2 + 7*a + 9)*x^7 + (a^3 + 10*a^2 + 5*a + 9)*x^6 + (11*a^3 + 10*a^2 + 6*a + 6)*x^5 + (6*a^3 + 12*a^2 + 11*a + 8)*x^4 + (11*a^4 + 11*a^3 + 5*a^2 + 8*a)*x^3 + (a^4 + a^3 + 4*a^2 + 5*a)*x^2 + (6*a^4 + 6*a^3 + 12*a^2)*x + a^5 + 4*a^4 + 2*a^3)
call for (5*t^9 + (5*a + 3)*t^7 + (3*a + 4)*t^6 + (12*a + 4)*t^5 + (3*a^2 + 2*a)*t^4 + (8*a^2 + 9)*t^3 + (5*a + 1)*t^2 + (5*a^3 + 12*a^2 + 8*a + 6)*t + 9*a^3 + 2*a^2 + a)/(9*t^12 + (9*a + 1)*t^10 + (8*a + 7)*t^9 + (4*a^2 + 5*a + 3)*t^8 + (8*a^2 + 2*a + 10)*t^7 + (4*a^3 + a^2 + 7*a + 10)*t^6 + (5*a^3 + a^2 + 11*a + 11)*t^5 + (11*a^3 + 9*a^2 + 5*a + 6)*t^4 + (5*a^4 + 5*a^3 + 7*a^2 + 6*a)*t^3 + (4*a^4 + 4*a^3 + 3*a^2 + 7*a)*t^2 + (11*a^4 + 11*a^3 + 9*a^2)*t + 4*a^5 + 3*a^4 + 8*a^3)  @  (x,)
(5*t^9 + (5*a + 3)*t^7 + (3*a + 4)*t^6 + (12*a + 4)*t^5 + (3*a^2 +