[ 48, 48 ][ 0, 2, 2, 2, 3 ][ 2, 6, 9, 4 ][ f1, f1*f2*f3^2, f2*f4, f3*f5 ]
{5}, {48, 48},  {}, {}, {a,b,c,d,e}, {a^2 + a*b + b^2+c^2 + c*d + c*e + d^2 + d*e + e^2,a^2 - b^2+2*(c^2 + 2*c*d -2*d*e+ -e^2), 2*a*b+b^2+2*(-1*c^2- 2*c*e + 1*d^2 + 2*d*e)}, {[[1, 0, 0, 0, 0], [ 1, -1,  0,  0,  0], [ 0,  0, -1,  0,  1], [ 0,  0,  0, -1,  1], [ 0,  0,  0,  0,  1]], [[-1,  0,  0,  0,  0], [ 0, -1,  0,  0,  0], [ 0,  0,  1,  0,  0], [ 0,  0,  0,  1,  0], [ 0,  0,  0,  0,  1]], [[-1, 1, 0, 0, 0], [-1, 0, 0, 0, 0], [ 0, 0, 1,-1, 0], [ 0, 0, 0,-1, 1], [ 0, 0, 0,-1, 0]], [[ 1, 0, 0, 0, 0], [ 0, 1, 0, 0, 0], [ 0, 0, 0,-1, 1], [ 0, 0, 0,-1, 0], [ 0, 0, 1,-1, 0]], [[ 1, 0, 0, 0, 0], [ 0, 1, 0, 0, 0], [ 0, 0,-1, 0, 0], [ 0, 0,-1, 0, 1], [ 0, 0,-1, 1, 0]]}
#{a^2 + a*b + b^2+c^2 - c*d + d^2 - d*e + e^2, a^2 - b^2-t*(2*c*d - 4*c*e - d^2 + 2*d*e),2*a*b+b^2+t*(c^2 - 2*c*e - d^2 + e^2)}, {[[-1, 0, 0, 0, 0], [-1, 1, 0, 0, 0], [ 0, 0,-1,-1,-1], [ 0, 0, 0, 0, 1], [ 0, 0, 0, 1, 0]], [[ 0,-1, 0, 0, 0], [-1, 0, 0, 0, 0], [ 0, 0, 0, 1, 1], [ 0, 0, 0,-1, 0], [ 0, 0, 1, 1, 0]], [[-1, 0, 0, 0, 0], [ 0,-1, 0, 0, 0], [ 0, 0, 0, 0, 1], [ 0, 0,-1,-1,-1], [ 0, 0, 1, 0, 0]], [[-1, 1, 0, 0, 0], [-1, 0, 0, 0, 0], [ 0, 0,-1,-1, 0], [ 0, 0, 1, 0, 0], [ 0, 0, 0, 1, 1]]}
#{     a^2 + a*b + b^2,  c^2 - c*d + d^2 - d*e + e^2,     a^2 - b^2,     2*a*b + b^2,     c^2 - 2*c*e - d^2 + e^2,     2*c*d - 4*c*e - d^2 + 2*d*e}
# [
#     a^2 + a*b + b^2,
#     c^2 - c*d + d^2 - d*e + e^2
# ]
# I2 contains a 2-dimensional subspace of CharacterRow 6
# Dimension 4
# Multiplicity 2
# [
#     a^2 - b^2,
#     a*b + 1/2*b^2,
#     c^2 - 2*c*e - d^2 + e^2,
#     c*d - 2*c*e - 1/2*d^2 + d*e
# ]
# 
# [1,0, 0, 0, 0], [0, -1,0, 0, 0], [0, 0, 0, -1,0], [0, 0, -1,0, 0], [0, 0, 0, 0, -1]],[[-1,1,0, 0,0], [0, 1,0, 0,0], [0, 0,-1,0,0], [0, 0,0, 1,0], [0, 0,0, 1,-1]], [[0,1,0, 0, 0], [1,0,0, 0, 0], [0,0,-1,0, 1], [0,0,0, -1,1], [0,0,0, 0, 1]]}
# [
# ]
# I2 contains a 2-dimensional subspace of CharacterRow 6
# Dimension 4
# Multiplicity 2
 [
 ]

#Strange first auto
#[ 1,  0,  0,  0,  0], [ 1, -1,  0, 0,  0], [ 0,  0,  0,  0, -1], [ 0,  0, -1, -1,  1], [ 0,  0, -1,  0,  0]
