[ 12, 1 ][ 0, 4, 4, 6 ][ 2, 2, 6 ][ f1, f1*f3^2, f2*f3 ]
[ 12, 1 ][ 0, 4, 4, 6 ][ 5, 5, 6 ][ f1*f2, f1*f2*f3^2, f2*f3 ]
[ 12, 2 ][ 0, 3, 4, 12 ][ 3, 2, 12 ][ f2, f1, f1*f2^2*f3 ]
[ 12, 2 ][ 0, 3, 4, 12 ][ 3, 6, 9 ][ f2, f1*f3, f1*f2^2 ]
[ 12, 2 ][ 0, 3, 4, 12 ][ 7, 2, 10 ][ f2^2, f1, f1*f2*f3 ]
[ 12, 2 ][ 0, 3, 4, 12 ][ 7, 6, 5 ][ f2^2, f1*f3, f1*f2 ]
[ 12, 2 ][ 0, 2, 12, 12 ][ 4, 5, 9 ][ f3, f1*f2, f1*f2^2 ]
[ 12, 2 ][ 0, 2, 12, 12 ][ 4, 10, 12 ][ f3, f1*f2*f3, f1*f2^2*f3 ]
[ 12, 3 ][ 0, 2, 2, 3, 3 ][ 3, 3, 2, 4 ][ f2, f2, f1, f1^2 ]
[ 12, 4 ][ 0, 2, 2, 2, 6 ][ 2, 2, 3, 6 ][ f1, f1*f3^2, f2, f2*f3 ]
[ 12, 4 ][ 0, 2, 2, 2, 6 ][ 3, 5, 5, 6 ][ f2, f1*f2, f1*f2*f3^2, f2*f3 ]
[ 48, 3 ][ 0, 3, 3, 4 ][ 2, 5, 3 ][ f1, f1^2*f3*f4, f3 ]
[ 48, 3 ][ 0, 3, 3, 4 ][ 2, 5, 6 ][ f1, f1^2*f3, f3*f4 ]
[ 48, 3 ][ 0, 3, 3, 4 ][ 2, 5, 7 ][ f1, f1^2*f3*f4*f5, f3*f5 ]
[ 48, 3 ][ 0, 3, 3, 4 ][ 2, 5, 8 ][ f1, f1^2*f2*f4, f2*f5 ]
[ 48, 48 ][ 0, 2, 4, 6 ][ 2, 10, 8 ][ f1, f1*f2*f3^2*f5, f2*f3*f4*f5 ]
[ 48, 48 ][ 0, 2, 4, 6 ][ 6, 7, 8 ][ f1*f2, f1*f3^2*f5, f2*f3*f4*f5 ]
[ 48, 33 ][ 0, 2, 3, 12 ][ 7, 3, 11 ][ f1*f3, f2*f3, f1*f2^2*f4*f5 ]
[ 48, 33 ][ 0, 2, 3, 12 ][ 7, 3, 14 ][ f1*f3, f2, f1*f2^2*f3 ]
[ 48, 33 ][ 0, 2, 3, 12 ][ 7, 9, 6 ][ f1*f3, f2^2, f1*f2*f3 ]
[ 48, 33 ][ 0, 2, 3, 12 ][ 7, 9, 12 ][ f1*f3, f2^2*f3*f4*f5, f1*f2*f5 ]
